<?xml version="1.0" encoding="UTF-8" standalone="no"?>
<!-- Created with Inkscape (http://www.inkscape.org/) -->

<svg
   xmlns:dc="http://purl.org/dc/elements/1.1/"
   xmlns:cc="http://creativecommons.org/ns#"
   xmlns:rdf="http://www.w3.org/1999/02/22-rdf-syntax-ns#"
   xmlns:svg="http://www.w3.org/2000/svg"
   xmlns="http://www.w3.org/2000/svg"
   xmlns:xlink="http://www.w3.org/1999/xlink"
   xmlns:sodipodi="http://sodipodi.sourceforge.net/DTD/sodipodi-0.dtd"
   xmlns:inkscape="http://www.inkscape.org/namespaces/inkscape"
   width="52.963348"
   height="52.963348"
   id="svg2254"
   sodipodi:version="0.32"
   inkscape:version="0.48.3.1 r9886"
   sodipodi:docname="ok.svg"
   inkscape:output_extension="org.inkscape.output.svg.inkscape"
   version="1.0"
   inkscape:export-filename="C:\joanna\Gfx\drawings_vector\admin\collections\kuba_information_icons_set.png"
   inkscape:export-xdpi="182.23772"
   inkscape:export-ydpi="182.23772">
  <defs
     id="defs3">
    <inkscape:perspective
       sodipodi:type="inkscape:persp3d"
       inkscape:vp_x="-50 : 600 : 1"
       inkscape:vp_y="0 : 1000 : 0"
       inkscape:vp_z="700 : 600 : 1"
       inkscape:persp3d-origin="300 : 400 : 1"
       id="perspective60" />
    <linearGradient
       y2="390.78342"
       x2="311.27377"
       y1="377.9527"
       x1="302.73621"
       gradientTransform="matrix(1.9519,0,0,1.84182,-206.4021,-329.7778)"
       gradientUnits="userSpaceOnUse"
       id="linearGradient4733"
       xlink:href="#linearGradient4554"
       inkscape:collect="always" />
    <linearGradient
       gradientUnits="userSpaceOnUse"
       y2="390.49332"
       x2="414.38986"
       y1="376.13748"
       x1="401.93405"
       gradientTransform="scale(0.999946,1.000054)"
       id="linearGradient4744"
       xlink:href="#linearGradient4738"
       inkscape:collect="always" />
    <linearGradient
       id="linearGradient4568">
      <stop
         id="stop4570"
         offset="0"
         style="stop-color:#00ff00;stop-opacity:1;" />
      <stop
         id="stop4572"
         offset="1"
         style="stop-color:#226122;stop-opacity:1;" />
    </linearGradient>
    <linearGradient
       y2="387.43924"
       x2="332.02466"
       y1="369.97995"
       x1="314.56537"
       gradientUnits="userSpaceOnUse"
       id="linearGradient4693"
       xlink:href="#linearGradient4568"
       inkscape:collect="always" />
    <linearGradient
       inkscape:collect="always"
       xlink:href="#linearGradient4554"
       id="linearGradient3711"
       gradientUnits="userSpaceOnUse"
       gradientTransform="matrix(1.9519,0,0,1.84182,-428.7143,-277.3005)"
       x1="302.73621"
       y1="377.9527"
       x2="311.27377"
       y2="390.78342" />
    <linearGradient
       inkscape:collect="always"
       xlink:href="#linearGradient4886"
       id="linearGradient3709"
       gradientUnits="userSpaceOnUse"
       x1="314.56537"
       y1="369.97995"
       x2="332.02466"
       y2="387.43924" />
    <linearGradient
       inkscape:collect="always"
       xlink:href="#linearGradient4554"
       id="linearGradient3695"
       gradientUnits="userSpaceOnUse"
       gradientTransform="translate(-305.3221,52.47723)"
       x1="808.12592"
       y1="362.58139"
       x2="832.68341"
       y2="400.04047" />
    <linearGradient
       id="linearGradient4886">
      <stop
         id="stop4888"
         offset="0.0000000"
         style="stop-color:#1c97e1;stop-opacity:1.0000000;" />
      <stop
         id="stop4890"
         offset="1.0000000"
         style="stop-color:#006798;stop-opacity:1.0000000;" />
    </linearGradient>
    <linearGradient
       inkscape:collect="always"
       xlink:href="#linearGradient4886"
       id="linearGradient3691"
       gradientUnits="userSpaceOnUse"
       gradientTransform="translate(-178.7883,253.0024)"
       x1="838.01013"
       y1="-320.49728"
       x2="909.21588"
       y2="-321.47269" />
    <linearGradient
       id="linearGradient4738">
      <stop
         id="stop4740"
         offset="0.0000000"
         style="stop-color:#ffffff;stop-opacity:0.72656250;" />
      <stop
         id="stop4742"
         offset="1.0000000"
         style="stop-color:#ffffff;stop-opacity:1.0000000;" />
    </linearGradient>
    <linearGradient
       id="linearGradient4554">
      <stop
         id="stop4556"
         offset="0.0000000"
         style="stop-color:#ffffff;stop-opacity:1.0000000;" />
      <stop
         id="stop4558"
         offset="1.0000000"
         style="stop-color:#ffffff;stop-opacity:0.0000000;" />
    </linearGradient>
    <linearGradient
       y2="359.15051"
       x2="745.21838"
       y1="328.40942"
       x1="714.00201"
       gradientTransform="matrix(0.901725,0,0,1.108985,-143.062,50.64598)"
       gradientUnits="userSpaceOnUse"
       id="linearGradient6127"
       xlink:href="#linearGradient4554"
       inkscape:collect="always" />
    <linearGradient
       id="linearGradient5028">
      <stop
         style="stop-color:#fffd26;stop-opacity:1.0000000;"
         offset="0.0000000"
         id="stop5030" />
      <stop
         style="stop-color:#967f00;stop-opacity:1.0000000;"
         offset="1.0000000"
         id="stop5032" />
    </linearGradient>
    <linearGradient
       y2="424.72763"
       x2="649.37592"
       y1="387.40463"
       x1="621.35413"
       gradientTransform="matrix(1.061434,0,0,0.942122,-143.062,50.64598)"
       gradientUnits="userSpaceOnUse"
       id="linearGradient6125"
       xlink:href="#linearGradient5028"
       inkscape:collect="always" />
    <linearGradient
       inkscape:collect="always"
       xlink:href="#linearGradient4738"
       id="linearGradient2314"
       gradientUnits="userSpaceOnUse"
       gradientTransform="matrix(0.645848,0,0,0.875833,18.0749,154.3767)"
       x1="786.64636"
       y1="302.44009"
       x2="818.39136"
       y2="338.76443" />
    <linearGradient
       inkscape:collect="always"
       xlink:href="#linearGradient4738"
       id="linearGradient2316"
       gradientUnits="userSpaceOnUse"
       gradientTransform="matrix(0.638597,0,0,1.565933,-305.3766,53.81816)"
       x1="1313.4297"
       y1="237.96057"
       x2="1333.0073"
       y2="258.76886" />
    <linearGradient
       inkscape:collect="always"
       xlink:href="#linearGradient4738"
       id="linearGradient2318"
       gradientUnits="userSpaceOnUse"
       gradientTransform="matrix(0.705519,0,0,0.956752,-378.2535,132.7828)"
       x1="786.64636"
       y1="302.44009"
       x2="818.39136"
       y2="338.76443" />
    <linearGradient
       inkscape:collect="always"
       xlink:href="#linearGradient4738"
       id="linearGradient2322"
       gradientUnits="userSpaceOnUse"
       gradientTransform="matrix(0.645848,0,0,0.875833,-151.4429,-50.6101)"
       x1="786.64636"
       y1="302.44009"
       x2="818.39136"
       y2="338.76443" />
    <linearGradient
       inkscape:collect="always"
       xlink:href="#linearGradient4554"
       id="linearGradient2325"
       gradientUnits="userSpaceOnUse"
       gradientTransform="matrix(0.901725,0,0,1.108985,-312.5798,-154.3408)"
       x1="714.00201"
       y1="328.40942"
       x2="745.21838"
       y2="359.15051" />
    <linearGradient
       inkscape:collect="always"
       xlink:href="#linearGradient5028"
       id="linearGradient2328"
       gradientUnits="userSpaceOnUse"
       gradientTransform="matrix(1.061434,0,0,0.942122,-312.5798,-154.3408)"
       x1="621.35413"
       y1="387.40463"
       x2="649.37592"
       y2="424.72763" />
    <linearGradient
       inkscape:collect="always"
       xlink:href="#linearGradient4554"
       id="linearGradient2332"
       gradientUnits="userSpaceOnUse"
       gradientTransform="translate(-399.0126,-162.2396)"
       x1="808.12592"
       y1="362.58139"
       x2="832.68341"
       y2="400.04047" />
    <linearGradient
       inkscape:collect="always"
       xlink:href="#linearGradient4738"
       id="linearGradient2336"
       gradientUnits="userSpaceOnUse"
       gradientTransform="matrix(0.638597,0,0,1.565933,-399.0671,-160.8986)"
       x1="1313.4297"
       y1="237.96057"
       x2="1333.0073"
       y2="258.76886" />
    <linearGradient
       inkscape:collect="always"
       xlink:href="#linearGradient4886"
       id="linearGradient2339"
       gradientUnits="userSpaceOnUse"
       gradientTransform="translate(-396.8652,167.4239)"
       x1="838.01013"
       y1="-320.49728"
       x2="909.21588"
       y2="-321.47269" />
    <linearGradient
       inkscape:collect="always"
       xlink:href="#linearGradient4738"
       id="linearGradient2344"
       gradientUnits="userSpaceOnUse"
       gradientTransform="matrix(0.705519,0,0,0.956752,-290.5796,-78.4396)"
       x1="786.64636"
       y1="302.44009"
       x2="818.39136"
       y2="338.76443" />
    <linearGradient
       inkscape:collect="always"
       xlink:href="#linearGradient4554"
       id="linearGradient2347"
       gradientUnits="userSpaceOnUse"
       gradientTransform="matrix(1.9519,0,0,1.84182,-341.0404,-488.5229)"
       x1="302.73621"
       y1="377.9527"
       x2="311.27377"
       y2="390.78342" />
    <linearGradient
       inkscape:collect="always"
       xlink:href="#linearGradient4554"
       id="linearGradient2352"
       gradientUnits="userSpaceOnUse"
       gradientTransform="matrix(1.9519,0,0,1.84182,-426.2173,-488.5229)"
       x1="302.73621"
       y1="377.9527"
       x2="311.27377"
       y2="390.78342" />
    <linearGradient
       inkscape:collect="always"
       xlink:href="#linearGradient4738"
       id="linearGradient2355"
       gradientUnits="userSpaceOnUse"
       gradientTransform="matrix(0.999946,0,0,1.000054,-219.8152,-158.7451)"
       x1="401.93405"
       y1="376.13748"
       x2="414.38986"
       y2="390.49332" />
    <linearGradient
       inkscape:collect="always"
       xlink:href="#linearGradient4568"
       id="linearGradient2464"
       gradientUnits="userSpaceOnUse"
       x1="314.56537"
       y1="369.97995"
       x2="332.02466"
       y2="387.43924" />
    <linearGradient
       inkscape:collect="always"
       xlink:href="#linearGradient4738"
       id="linearGradient2466"
       gradientUnits="userSpaceOnUse"
       gradientTransform="matrix(0.999946,0,0,1.000054,-223.45711,-147.81938)"
       x1="433.72797"
       y1="377.19687"
       x2="405.6488"
       y2="379.76682" />
    <linearGradient
       inkscape:collect="always"
       xlink:href="#linearGradient4554"
       id="linearGradient2468"
       gradientUnits="userSpaceOnUse"
       gradientTransform="matrix(1.9519,0,0,1.84182,-426.2173,-488.5229)"
       x1="302.73621"
       y1="377.9527"
       x2="311.27377"
       y2="390.78342" />
    <linearGradient
       inkscape:collect="always"
       xlink:href="#linearGradient4568"
       id="linearGradient8518"
       gradientUnits="userSpaceOnUse"
       x1="314.56537"
       y1="369.97995"
       x2="332.02466"
       y2="387.43924" />
    <linearGradient
       inkscape:collect="always"
       xlink:href="#linearGradient4738"
       id="linearGradient8520"
       gradientUnits="userSpaceOnUse"
       gradientTransform="matrix(0.999946,0,0,1.000054,-223.45711,-147.81938)"
       x1="433.72797"
       y1="377.19687"
       x2="405.6488"
       y2="379.76682" />
    <linearGradient
       inkscape:collect="always"
       xlink:href="#linearGradient4554"
       id="linearGradient8522"
       gradientUnits="userSpaceOnUse"
       gradientTransform="matrix(1.9519,0,0,1.84182,-426.2173,-488.5229)"
       x1="302.73621"
       y1="377.9527"
       x2="311.27377"
       y2="390.78342" />
  </defs>
  <sodipodi:namedview
     id="base"
     pagecolor="#ffffff"
     bordercolor="#666666"
     borderopacity="1.0"
     inkscape:pageopacity="0.0"
     inkscape:pageshadow="2"
     inkscape:zoom="7.5509872"
     inkscape:cx="45.6109"
     inkscape:cy="35.733142"
     inkscape:current-layer="g2458"
     inkscape:document-units="px"
     inkscape:window-width="1280"
     inkscape:window-height="993"
     inkscape:window-x="0"
     inkscape:window-y="27"
     showgrid="false"
     inkscape:window-maximized="0" />
  <metadata
     id="metadata4">
    <rdf:RDF>
      <cc:Work
         rdf:about="">
        <dc:format>image/svg+xml</dc:format>
        <dc:type
           rdf:resource="http://purl.org/dc/dcmitype/StillImage" />
      </cc:Work>
    </rdf:RDF>
  </metadata>
  <g
     id="layer1"
     inkscape:label="Layer 1"
     inkscape:groupmode="layer"
     transform="translate(-164.60364,-201.81625)">
    <g
       id="g2458">
      <g
         id="g8506"
         transform="matrix(0.56642944,0,0,0.56642944,71.367295,110.46493)">
        <path
           transform="matrix(1.896061,0,0,1.896061,-426.2173,-488.5229)"
           d="m 339.53775,378.05789 c 0,7.71359 -6.25309,13.96668 -13.96667,13.96668 -7.71359,0 -13.96668,-6.25309 -13.96668,-13.96668 0,-7.71358 6.25309,-13.96668 13.96668,-13.96668 7.71358,0 13.96667,6.2531 13.96667,13.96668 z"
           sodipodi:ry="13.966679"
           sodipodi:rx="13.966679"
           sodipodi:cy="378.05789"
           sodipodi:cx="325.57108"
           id="path4531"
           style="fill:#226122;fill-opacity:1;fill-rule:nonzero;stroke:none;stroke-width:3.625;marker:none;visibility:visible;display:inline;overflow:visible"
           sodipodi:type="arc" />
        <path
           transform="matrix(1.731185,0,0,1.731185,-372.5388,-426.1907)"
           d="m 339.53775,378.05789 c 0,7.71359 -6.25309,13.96668 -13.96667,13.96668 -7.71359,0 -13.96668,-6.25309 -13.96668,-13.96668 0,-7.71358 6.25309,-13.96668 13.96668,-13.96668 7.71358,0 13.96667,6.2531 13.96667,13.96668 z"
           sodipodi:ry="13.966679"
           sodipodi:rx="13.966679"
           sodipodi:cy="378.05789"
           sodipodi:cx="325.57108"
           id="path4533"
           style="fill:url(#linearGradient8518);fill-opacity:1;fill-rule:nonzero;stroke:#ffffff;stroke-width:0.32492188;stroke-linecap:butt;stroke-linejoin:miter;stroke-miterlimit:4;stroke-opacity:1;stroke-dashoffset:0;marker:none;visibility:visible;display:inline;overflow:visible"
           sodipodi:type="arc" />
        <path
           sodipodi:nodetypes="cccccsscccc"
           id="rect4574"
           d="m 173.97809,230.81101 c -0.22285,0.22282 -0.18093,0.57323 0.0419,0.79604 l 13.52774,14.18788 22.5326,-25.48658 c 0.22285,-0.22283 0.22281,-0.53132 0,-0.75414 l -5.02769,-5.02769 c -0.22284,-0.22284 -0.58637,-0.27716 -0.79604,-0.0419 l -16.82943,18.88214 -7.58343,-7.58343 c -0.22282,-0.22285 -0.61512,-0.22285 -0.83794,0 l -5.02769,5.02769 z"
           style="fill:url(#linearGradient8520);fill-opacity:1;fill-rule:nonzero;stroke:none;stroke-width:0.61607176;marker:none;visibility:visible;display:inline;overflow:visible"
           inkscape:connector-curvature="0" />
        <path
           id="path4537"
           d="m 191.06906,204.13188 c -13.34675,0 -24.1748,10.82803 -24.17478,24.17478 0,6.41257 2.61694,12.14291 6.69547,16.47203 2.11885,-17.50049 16.88952,-31.10725 34.95862,-31.10725 0.48721,0 0.93961,0.099 1.42205,0.1185 -4.42143,-5.75069 -11.09207,-9.65806 -18.90136,-9.65806 z"
           style="fill:url(#linearGradient8522);fill-opacity:1;fill-rule:nonzero;stroke:none;stroke-width:0.61607176;marker:none;visibility:visible;display:inline;overflow:visible"
           inkscape:connector-curvature="0" />
      </g>
    </g>
  </g>
</svg>
