<?xml version="1.0" encoding="UTF-8" standalone="no"?>
<!-- Created with Inkscape (http://www.inkscape.org/) -->
<svg xmlns:dc="http://purl.org/dc/elements/1.1/" xmlns:cc="http://web.resource.org/cc/" xmlns:rdf="http://www.w3.org/1999/02/22-rdf-syntax-ns#" xmlns:svg="http://www.w3.org/2000/svg" xmlns="http://www.w3.org/2000/svg" xmlns:xlink="http://www.w3.org/1999/xlink" xmlns:sodipodi="http://sodipodi.sourceforge.net/DTD/sodipodi-0.dtd" xmlns:inkscape="http://www.inkscape.org/namespaces/inkscape" width="200" height="200" id="svg5077" sodipodi:version="0.32" inkscape:version="0.45" version="1.0" sodipodi:docbase="D:\" sodipodi:docname="pericolo.svg" inkscape:output_extension="org.inkscape.output.svg.inkscape" inkscape:export-filename="D:\pericolo.png" inkscape:export-xdpi="90" inkscape:export-ydpi="90" sodipodi:modified="TRUE">
  <defs id="defs5079">
    <linearGradient id="linearGradient4578">
      <stop id="stop4580" offset="0" style="stop-color:#ffffff;stop-opacity:1;"/>
      <stop id="stop4582" offset="1" style="stop-color:#ffffff;stop-opacity:0;"/>
    </linearGradient>
    <linearGradient inkscape:collect="always" xlink:href="#linearGradient4578" id="linearGradient4795" gradientUnits="userSpaceOnUse" gradientTransform="matrix(0.3569488,0,0,0.3569488,32.86752,19.570056)" x1="85.548698" y1="103.3616" x2="61.305798" y2="-31.392054"/>
    <linearGradient id="linearGradient4594">
      <stop id="stop4596" offset="0" style="stop-color:#ffffff;stop-opacity:1;"/>
      <stop id="stop4598" offset="1" style="stop-color:#c0cbe4;stop-opacity:1;"/>
    </linearGradient>
    <linearGradient inkscape:collect="always" xlink:href="#linearGradient4594" id="linearGradient4793" gradientUnits="userSpaceOnUse" x1="45.02018" y1="-13.68953" x2="128.21381" y2="181.30008"/>
    <linearGradient id="linearGradient4567">
      <stop style="stop-color:#ff0000;stop-opacity:1;" offset="0" id="stop4569"/>
      <stop style="stop-color:#770000;stop-opacity:1;" offset="1" id="stop4571"/>
    </linearGradient>
    <linearGradient inkscape:collect="always" xlink:href="#linearGradient4567" id="linearGradient4791" gradientUnits="userSpaceOnUse" x1="37.400555" y1="-9.6013603" x2="112.59945" y2="190.21712"/>
    <filter inkscape:collect="always" x="-0.19930068" width="1.3986014" y="-0.20868203" height="1.4173641" id="filter4779">
      <feGaussianBlur inkscape:collect="always" stdDeviation="23.82267" id="feGaussianBlur4781"/>
    </filter>
  </defs>
  <sodipodi:namedview id="base" pagecolor="#ffffff" bordercolor="#666666" borderopacity="1.0" inkscape:pageopacity="0.0" inkscape:pageshadow="2" inkscape:zoom="1.1117647" inkscape:cx="101.42857" inkscape:cy="90" inkscape:document-units="px" inkscape:current-layer="layer1" width="200px" height="200px" inkscape:window-width="795" inkscape:window-height="579" inkscape:window-x="154" inkscape:window-y="154"/>
  <metadata id="metadata5082">
    <rdf:RDF>
      <cc:Work rdf:about="">
        <dc:format>image/svg+xml</dc:format>
        <dc:type rdf:resource="http://purl.org/dc/dcmitype/StillImage"/>
      </cc:Work>
    </rdf:RDF>
  </metadata>
  <g inkscape:label="Livello 1" inkscape:groupmode="layer" id="layer1" transform="translate(595.09513,-156.328)">
    <g style="display:inline" id="g4783" transform="matrix(1.8948225,0,0,1.8948225,-606.23714,165.60367)">
      <path sodipodi:type="star" style="opacity:0.61650486;fill:#000000;fill-opacity:1;fill-rule:nonzero;stroke:#000000;stroke-width:0.73925716;stroke-linecap:round;stroke-miterlimit:4;stroke-dasharray:none;stroke-opacity:1;filter:url(#filter4779)" id="path4653" sodipodi:sides="3" sodipodi:cx="69.444443" sodipodi:cy="97.222221" sodipodi:r1="134.16983" sodipodi:r2="67.084915" sodipodi:arg1="0.52359878" sodipodi:arg2="1.5707963" inkscape:flatsided="true" inkscape:rounded="0.17" inkscape:randomized="0" d="M 185.63892,164.30714 C 165.88586,198.52044 -26.996977,198.52044 -46.750039,164.30714 C -66.503101,130.09383 29.93832,-36.947609 69.444443,-36.947609 C 108.95057,-36.947609 205.39199,130.09383 185.63892,164.30714 z " transform="matrix(0.3569488,0,0,0.3569488,34.86752,21.570056)"/>
      <path transform="matrix(0.3569488,0,0,0.3569488,32.86752,19.570056)" d="M 185.63892,164.30714 C 165.88586,198.52044 -26.996977,198.52044 -46.750039,164.30714 C -66.503101,130.09383 29.93832,-36.947609 69.444443,-36.947609 C 108.95057,-36.947609 205.39199,130.09383 185.63892,164.30714 z " inkscape:randomized="0" inkscape:rounded="0.17" inkscape:flatsided="true" sodipodi:arg2="1.5707963" sodipodi:arg1="0.52359878" sodipodi:r2="67.084915" sodipodi:r1="134.16983" sodipodi:cy="97.222221" sodipodi:cx="69.444443" sodipodi:sides="3" id="path4558" style="fill:url(#linearGradient4791);fill-opacity:1;fill-rule:nonzero;stroke:#000000;stroke-width:0.73925716;stroke-linecap:round;stroke-miterlimit:4;stroke-dasharray:none;stroke-opacity:1" sodipodi:type="star"/>
      <path transform="matrix(0.2790715,0,0,0.2491656,38.275663,31.386013)" sodipodi:type="star" style="fill:url(#linearGradient4793);fill-opacity:1;fill-rule:nonzero;stroke:#000000;stroke-width:1.0006901;stroke-linecap:round;stroke-miterlimit:4;stroke-dasharray:none;stroke-opacity:1" id="path4560" sodipodi:sides="3" sodipodi:cx="69.444443" sodipodi:cy="97.222221" sodipodi:r1="134.16983" sodipodi:r2="67.084915" sodipodi:arg1="0.52359878" sodipodi:arg2="1.5707963" inkscape:flatsided="true" inkscape:rounded="0.17" inkscape:randomized="0" d="M 185.63892,164.30714 C 165.88586,198.52044 -26.996977,198.52044 -46.750039,164.30714 C -66.503101,130.09383 29.93832,-36.947609 69.444443,-36.947609 C 108.95057,-36.947609 205.39199,130.09383 185.63892,164.30714 z "/>
      <path sodipodi:nodetypes="csssc" id="path4562" d="M 63.850527,42.48894 C 63.850527,51.33746 61.075214,63.091931 57.655631,63.091931 C 54.236048,63.091931 51.460734,51.33746 51.460734,42.48894 C 51.460734,33.640421 54.236048,31.03208 57.655631,31.03208 C 61.075214,31.03208 63.850527,33.640421 63.850527,42.48894 z " style="fill:#000000;fill-opacity:1;fill-rule:nonzero;stroke:#000000;stroke-width:0.26387694;stroke-linecap:round;stroke-miterlimit:4;stroke-opacity:1"/>
      <path transform="matrix(0.2381585,0,0,0.2383644,37.037284,31.190008)" d="M 103.7037 161.57408 A 17.129629 17.129629 0 1 1  69.444445,161.57408 A 17.129629 17.129629 0 1 1  103.7037 161.57408 z" sodipodi:ry="17.129629" sodipodi:rx="17.129629" sodipodi:cy="161.57408" sodipodi:cx="86.574074" id="path4565" style="fill:#000000;fill-opacity:1;fill-rule:nonzero;stroke:#000000;stroke-width:1.10751009;stroke-linecap:round;stroke-miterlimit:4;stroke-dasharray:none;stroke-opacity:1" sodipodi:type="arc"/>
      <path sodipodi:nodetypes="cccc" id="path4575" d="M 19.586356,56.759659 C 28.292387,35.102034 47.868613,6.3816513 57.655631,6.3816513 C 65.633945,6.3816513 80.117582,25.467507 89.914745,44.254453 C 80.798177,52.933827 60.00564,60.719571 19.586356,56.759659 z " style="opacity:0.44174757;fill:url(#linearGradient4795);fill-opacity:1;fill-rule:nonzero;stroke:none;stroke-width:0.5;stroke-linecap:round;stroke-miterlimit:4;stroke-opacity:1"/>
    </g>
  </g>
</svg>