<?xml version="1.0" encoding="UTF-8" standalone="no"?>
<!-- Created with Inkscape (http://www.inkscape.org/) -->

<svg
   xmlns:dc="http://purl.org/dc/elements/1.1/"
   xmlns:cc="http://creativecommons.org/ns#"
   xmlns:rdf="http://www.w3.org/1999/02/22-rdf-syntax-ns#"
   xmlns:svg="http://www.w3.org/2000/svg"
   xmlns="http://www.w3.org/2000/svg"
   xmlns:xlink="http://www.w3.org/1999/xlink"
   xmlns:sodipodi="http://sodipodi.sourceforge.net/DTD/sodipodi-0.dtd"
   xmlns:inkscape="http://www.inkscape.org/namespaces/inkscape"
   width="500"
   height="500"
   viewBox="0 0 499.99999 499.99999"
   id="svg4983"
   version="1.1"
   inkscape:version="0.91 r13725"
   sodipodi:docname="mailinglist.svg"
   inkscape:export-filename="/tmp/blub.png"
   inkscape:export-xdpi="90"
   inkscape:export-ydpi="90">
  <defs
     id="defs4985">
    <linearGradient
       inkscape:collect="always"
       id="linearGradient6171">
      <stop
         style="stop-color:#d9d9d9;stop-opacity:1"
         offset="0"
         id="stop6173" />
      <stop
         style="stop-color:#9a9a9a;stop-opacity:0;"
         offset="1"
         id="stop6175" />
    </linearGradient>
    <radialGradient
       inkscape:collect="always"
       xlink:href="#linearGradient6171"
       id="radialGradient6177"
       cx="248.49753"
       cy="801.84442"
       fx="248.49753"
       fy="801.84442"
       r="230.31477"
       gradientUnits="userSpaceOnUse" />
  </defs>
  <sodipodi:namedview
     id="base"
     pagecolor="#ffffff"
     bordercolor="#666666"
     borderopacity="1.0"
     inkscape:pageopacity="0.0"
     inkscape:pageshadow="2"
     inkscape:zoom="0.98994949"
     inkscape:cx="308.66018"
     inkscape:cy="260.17714"
     inkscape:document-units="px"
     inkscape:current-layer="layer1"
     showgrid="false"
     units="px"
     inkscape:window-width="1920"
     inkscape:window-height="982"
     inkscape:window-x="0"
     inkscape:window-y="28"
     inkscape:window-maximized="1" />
  <metadata
     id="metadata4988">
    <rdf:RDF>
      <cc:Work
         rdf:about="">
        <dc:format>image/svg+xml</dc:format>
        <dc:type
           rdf:resource="http://purl.org/dc/dcmitype/StillImage" />
        <dc:title></dc:title>
      </cc:Work>
    </rdf:RDF>
  </metadata>
  <g
     inkscape:label="Ebene 1"
     inkscape:groupmode="layer"
     id="layer1"
     transform="translate(0,-552.36223)">
    <g
       id="g6155">
      <ellipse
         ry="48.571426"
         rx="45"
         cy="793.79083"
         cx="248.57143"
         id="path6153"
         style="color:#000000;clip-rule:nonzero;display:inline;overflow:visible;visibility:visible;opacity:1;isolation:auto;mix-blend-mode:normal;color-interpolation:sRGB;color-interpolation-filters:linearRGB;solid-color:#000000;solid-opacity:1;fill:#9a9a9a;fill-opacity:1;fill-rule:evenodd;stroke:none;stroke-width:0.1;stroke-linecap:butt;stroke-linejoin:miter;stroke-miterlimit:4;stroke-dasharray:none;stroke-dashoffset:0;stroke-opacity:1;color-rendering:auto;image-rendering:auto;shape-rendering:auto;text-rendering:auto;enable-background:accumulate" />
      <g
         style="fill:#9a9a9a;fill-opacity:1"
         id="g6145">
        <ellipse
           style="color:#000000;clip-rule:nonzero;display:inline;overflow:visible;visibility:visible;opacity:1;isolation:auto;mix-blend-mode:normal;color-interpolation:sRGB;color-interpolation-filters:linearRGB;solid-color:#000000;solid-opacity:1;fill:#9a9a9a;fill-opacity:1;fill-rule:evenodd;stroke:none;stroke-width:0.1;stroke-linecap:butt;stroke-linejoin:miter;stroke-miterlimit:4;stroke-dasharray:none;stroke-dashoffset:0;stroke-opacity:1;color-rendering:auto;image-rendering:auto;shape-rendering:auto;text-rendering:auto;enable-background:accumulate"
           id="path6104-63"
           cx="645.44904"
           cy="632.11066"
           rx="35"
           ry="118.92857"
           transform="matrix(0.8387298,0.54454781,-0.54454781,0.8387298,0,0)" />
        <ellipse
           style="color:#000000;clip-rule:nonzero;display:inline;overflow:visible;visibility:visible;opacity:1;isolation:auto;mix-blend-mode:normal;color-interpolation:sRGB;color-interpolation-filters:linearRGB;solid-color:#000000;solid-opacity:1;fill:#9a9a9a;fill-opacity:1;fill-rule:evenodd;stroke:none;stroke-width:0.1;stroke-linecap:butt;stroke-linejoin:miter;stroke-miterlimit:4;stroke-dasharray:none;stroke-dashoffset:0;stroke-opacity:1;color-rendering:auto;image-rendering:auto;shape-rendering:auto;text-rendering:auto;enable-background:accumulate"
           id="path6104-8"
           cx="-677.66986"
           cy="571.8241"
           rx="35"
           ry="118.92857"
           transform="matrix(0.30420666,-0.95260606,0.95260606,0.30420666,0,0)" />
        <ellipse
           style="color:#000000;clip-rule:nonzero;display:inline;overflow:visible;visibility:visible;opacity:1;isolation:auto;mix-blend-mode:normal;color-interpolation:sRGB;color-interpolation-filters:linearRGB;solid-color:#000000;solid-opacity:1;fill:#9a9a9a;fill-opacity:1;fill-rule:evenodd;stroke:none;stroke-width:0.1;stroke-linecap:butt;stroke-linejoin:miter;stroke-miterlimit:4;stroke-dasharray:none;stroke-dashoffset:0;stroke-opacity:1;color-rendering:auto;image-rendering:auto;shape-rendering:auto;text-rendering:auto;enable-background:accumulate"
           id="path6104-1"
           cx="-813.21155"
           cy="115.72746"
           rx="35"
           ry="118.92857"
           transform="matrix(-0.04846035,-0.99882511,0.99882511,-0.04846035,0,0)" />
        <ellipse
           style="color:#000000;clip-rule:nonzero;display:inline;overflow:visible;visibility:visible;opacity:1;isolation:auto;mix-blend-mode:normal;color-interpolation:sRGB;color-interpolation-filters:linearRGB;solid-color:#000000;solid-opacity:1;fill:#9a9a9a;fill-opacity:1;fill-rule:evenodd;stroke:none;stroke-width:0.1;stroke-linecap:butt;stroke-linejoin:miter;stroke-miterlimit:4;stroke-dasharray:none;stroke-dashoffset:0;stroke-opacity:1;color-rendering:auto;image-rendering:auto;shape-rendering:auto;text-rendering:auto;enable-background:accumulate"
           id="path6104-2"
           cx="-74.52317"
           cy="936.45117"
           rx="35"
           ry="118.92857"
           transform="matrix(0.92213126,-0.38687717,0.38687717,0.92213126,0,0)" />
        <ellipse
           style="color:#000000;clip-rule:nonzero;display:inline;overflow:visible;visibility:visible;opacity:1;isolation:auto;mix-blend-mode:normal;color-interpolation:sRGB;color-interpolation-filters:linearRGB;solid-color:#000000;solid-opacity:1;fill:#9a9a9a;fill-opacity:1;fill-rule:evenodd;stroke:none;stroke-width:0.1;stroke-linecap:butt;stroke-linejoin:miter;stroke-miterlimit:4;stroke-dasharray:none;stroke-dashoffset:0;stroke-opacity:1;color-rendering:auto;image-rendering:auto;shape-rendering:auto;text-rendering:auto;enable-background:accumulate"
           id="path6104-6"
           cx="795.62225"
           cy="165.61302"
           rx="35"
           ry="118.92857"
           transform="matrix(0.59313016,0.80510659,-0.80510659,0.59313016,0,0)" />
        <ellipse
           style="color:#000000;clip-rule:nonzero;display:inline;overflow:visible;visibility:visible;opacity:1;isolation:auto;mix-blend-mode:normal;color-interpolation:sRGB;color-interpolation-filters:linearRGB;solid-color:#000000;solid-opacity:1;fill:#9a9a9a;fill-opacity:1;fill-rule:evenodd;stroke:none;stroke-width:0.1;stroke-linecap:butt;stroke-linejoin:miter;stroke-miterlimit:4;stroke-dasharray:none;stroke-dashoffset:0;stroke-opacity:1;color-rendering:auto;image-rendering:auto;shape-rendering:auto;text-rendering:auto;enable-background:accumulate"
           id="path6104"
           cx="-318.13013"
           cy="673.65363"
           rx="35"
           ry="118.92857"
           transform="matrix(0.76861136,-0.63971601,0.63971601,0.76861136,0,0)" />
      </g>
    </g>
    <circle
       style="color:#000000;clip-rule:nonzero;display:inline;overflow:visible;visibility:visible;opacity:1;isolation:auto;mix-blend-mode:normal;color-interpolation:sRGB;color-interpolation-filters:linearRGB;solid-color:#000000;solid-opacity:1;fill:url(#radialGradient6177);fill-opacity:1;fill-rule:evenodd;stroke:none;stroke-width:0.1;stroke-linecap:butt;stroke-linejoin:miter;stroke-miterlimit:4;stroke-dasharray:none;stroke-dashoffset:0;stroke-opacity:1;color-rendering:auto;image-rendering:auto;shape-rendering:auto;text-rendering:auto;enable-background:accumulate"
       id="path6169"
       cx="248.49753"
       cy="801.84442"
       r="230.31477" />
    <g
       style="font-style:normal;font-weight:normal;font-size:271.27212524px;line-height:125%;font-family:Sans;letter-spacing:0px;word-spacing:0px;fill:#000000;fill-opacity:1;stroke:none;stroke-width:1px;stroke-linecap:butt;stroke-linejoin:miter;stroke-opacity:1"
       id="text5550">
      <path
         d="m 215.28271,795.98767 q 0,18.94136 9.40445,29.80284 9.40445,10.72903 25.82913,10.72903 16.29223,0 25.56422,-10.86148 9.40446,-10.86149 9.40446,-29.67039 0,-18.544 -9.53691,-29.40548 -9.53692,-10.99394 -25.69668,-10.99394 -16.02731,0 -25.56422,10.86149 -9.40445,10.86148 -9.40445,29.53793 z m 72.18911,39.60467 q -7.94742,10.19919 -18.27908,15.10011 -10.19919,4.76845 -23.84227,4.76845 -22.78262,0 -37.08799,-16.42468 -14.17291,-16.55713 -14.17291,-43.04855 0,-26.49142 14.30537,-43.04856 14.30536,-16.55713 36.95553,-16.55713 13.64308,0 23.97473,5.03337 10.33165,4.90091 18.14662,14.96765 l 0,-17.35188 18.94137,0 0,97.48842 q 19.33873,-2.91406 30.20021,-17.6168 10.99394,-14.83519 10.99394,-38.28009 0,-14.17291 -4.23862,-26.62388 -4.10617,-12.45097 -12.58343,-23.04753 -13.77554,-17.35188 -33.6441,-26.49142 -19.73611,-9.272 -43.04855,-9.272 -16.29223,0 -31.25988,4.37108 -14.96765,4.23863 -27.68353,12.71589 -20.79576,13.51062 -32.58445,35.4985 -11.65622,21.85542 -11.65622,47.41964 0,21.06067 7.55005,39.47221 7.68252,18.41153 22.12034,32.45199 13.90799,13.77553 32.18707,20.92822 18.27908,7.28514 39.07484,7.28514 17.08697,0 33.51165,-5.82811 16.55714,-5.69566 30.33267,-16.42468 l 11.92114,14.70273 q -16.55713,12.84834 -36.16078,19.60365 -19.4712,6.88777 -39.60468,6.88777 -24.50456,0 -46.22752,-8.74217 -21.72296,-8.60971 -38.67747,-25.16684 -16.95451,-16.55714 -25.82913,-38.2801 -8.87463,-21.85542 -8.87463,-46.88981 0,-24.1072 9.00708,-45.96262 9.00708,-21.85542 25.69668,-38.41255 17.08696,-16.82205 39.47221,-25.69668 22.38525,-9.00708 47.41964,-9.00708 28.0809,0 52.05564,11.52377 24.10719,11.52376 40.39941,32.7169 9.93428,12.98079 15.10011,28.21336 5.29828,15.23256 5.29828,31.52479 0,34.83621 -21.06067,54.96969 -21.06068,20.13348 -58.14867,20.92822 l 0,-20.39839 z"
         style=""
         id="path72539" />
    </g>
    <g
       id="g6205">
      <path
         id="path890"
         style="fill-opacity:0.25;fill-rule:evenodd;stroke-width:1pt"
         d="m 416.19747,833.92381 c 0,0 12.23552,-2.46326 12.7675,-4.92498 2.92515,-9.57558 -5.05455,-32.28292 -8.77691,-36.11346 -18.0858,-6.56662 19.68025,38.02798 -3.99059,41.03844 z"
         sodipodi:nodetypes="cccc"
         inkscape:connector-curvature="0" />
      <path
         id="path891"
         style="fill-opacity:0.23999999;fill-rule:evenodd;stroke-width:1pt"
         d="m 391.99467,868.9428 c 0,0 11.70352,0.82007 13.03274,-1.36878 1.32919,-2.18889 7.44769,-21.34005 3.72385,-30.64128 -12.23553,-10.39565 4.52108,31.73569 -16.75659,32.01006 z"
         sodipodi:nodetypes="cccc"
         inkscape:connector-curvature="0" />
      <g
         transform="matrix(2.695471,0,0,2.695471,-592.45193,-841.85644)"
         style="fill:#ffaf00;fill-opacity:1"
         id="g5808">
        <path
           inkscape:connector-curvature="0"
           sodipodi:nodetypes="ccccccccccccc"
           d="m 358.64812,625.71656 c 0.0863,-0.92176 -1.67454,-6.01635 3.0698,-12.49416 7.15555,-6.97374 29.44846,-7.05348 33.34729,0.10801 3.89827,7.1615 3.47387,12.43705 2.61296,13.35881 -2.62891,1.52459 -4.48266,1.98491 -7.11157,2.44579 0,0 -0.64705,-7.66535 -1.547,-10.38202 -0.0385,-0.0927 1.1138,4.14003 1.547,10.38428 -0.59978,6.17356 -1.19955,11.85118 -1.19955,11.85118 -7.94114,0.79283 -15.19399,0.94778 -22.79099,-0.1736 -0.77515,-0.70914 -2.56513,-9.13849 -2.78503,-12.80858 -0.2199,-4.23729 0.9857,-10.23103 0.9857,-10.23103 -0.25838,0.21263 -1.19956,8.19862 -0.89939,10.17448 -2.02583,0.20245 -4.79822,-1.73665 -5.22922,-2.23316 z"
           style="fill:#ffaf00;fill-opacity:1;fill-rule:evenodd;stroke:#000000;stroke-width:1.25001478;stroke-linejoin:round"
           id="path828" />
        <path
           d="m 386.96794,601.47697 c 0,4.63427 -4.56733,8.39598 -10.19567,8.39598 -5.62834,0 -10.19621,-3.76171 -10.19621,-8.39598 0,-4.63484 4.56787,-8.39655 10.19621,-8.39655 5.62834,1.2e-4 10.19567,3.76171 10.19567,8.39655 z"
           style="fill:#ffaf00;fill-opacity:1;fill-rule:evenodd;stroke:#000000;stroke-width:1.25001478;stroke-linejoin:round"
           inkscape:connector-curvature="0"
           id="path827" />
      </g>
      <path
         id="path830"
         style="fill:#ffffff;fill-opacity:0.25;fill-rule:evenodd;stroke-width:1pt"
         d="m 422.72523,758.48262 c -11.96878,-4.10386 -40.16069,17.23665 -17.81906,36.38781 13.56323,-2.73761 -12.50076,-24.89772 17.81906,-36.38781 z"
         sodipodi:nodetypes="ccc"
         inkscape:connector-curvature="0" />
      <path
         id="path831"
         style="fill:#ffffff;fill-opacity:0.25;fill-rule:evenodd;stroke-width:1pt"
         d="m 408.89528,800.34188 c -1.3307,-0.27437 -19.14976,3.00893 -25.53353,12.0373 -5.3183,3.28333 -10.37284,18.87679 -8.24493,31.46283 2.65992,2.18738 7.71296,5.74505 9.04366,4.92347 7.44621,-16.1407 -17.55383,-32.83014 24.7348,-48.4236 z"
         sodipodi:nodetypes="ccccc"
         inkscape:connector-curvature="0" />
      <path
         id="path832"
         style="fill:#ffffff;fill-opacity:0.25;fill-rule:evenodd;stroke-width:1pt"
         d="m 391.07471,827.69981 c -5.3183,16.68944 -0.26524,46.50911 5.58504,56.35906 5.85176,1.91449 14.0967,2.73609 15.95937,2.18886 1.59446,-13.95332 -22.07639,-12.03881 -21.54441,-58.54792 z"
         sodipodi:nodetypes="cccc"
         inkscape:connector-curvature="0" />
      <path
         id="path833"
         style="fill-opacity:0.25;fill-rule:evenodd;stroke-width:1pt"
         d="m 424.32116,800.88909 c 22.60689,-6.29379 16.75513,-31.19 26.86271,-24.35051 -0.79869,5.19935 -3.99059,23.52893 -26.86271,24.35051 z"
         sodipodi:nodetypes="ccc"
         inkscape:connector-curvature="0" />
      <path
         id="path834"
         style="fill-opacity:0.25;fill-rule:evenodd;stroke-width:1pt"
         d="m 466.87502,851.22873 c 0,0 12.23552,-2.46325 12.7675,-4.92497 2.92515,-9.57558 -5.05455,-32.28293 -8.77691,-36.11346 -18.0858,-6.56663 19.68025,38.02794 -3.99059,41.03843 z"
         sodipodi:nodetypes="cccc"
         inkscape:connector-curvature="0" />
      <path
         id="path835"
         style="fill-opacity:0.23999999;fill-rule:evenodd;stroke-width:1pt"
         d="m 442.67222,886.24773 c 0,0 11.70352,0.82007 13.03274,-1.36879 1.32919,-2.18888 7.44769,-21.34004 3.72385,-30.64128 -12.23553,-10.39565 4.52108,31.7357 -16.75659,32.01007 z"
         sodipodi:nodetypes="cccc"
         inkscape:connector-curvature="0" />
    </g>
    <g
       id="g5831-4"
       transform="matrix(2.695471,0,0,2.695471,-609.65048,-999.585)">
      <path
         id="path890-6"
         style="fill-opacity:0.25;fill-rule:evenodd;stroke-width:1pt"
         d="m 374.20154,621.7022 c 0,0 4.53929,-0.91385 4.73665,-1.82713 1.08521,-3.55247 -1.8752,-11.97673 -3.25617,-13.39783 -6.7097,-2.43617 7.30123,14.1081 -1.48048,15.22496 z"
         sodipodi:nodetypes="cccc"
         inkscape:connector-curvature="0" />
      <path
         id="path891-4"
         style="fill-opacity:0.23999999;fill-rule:evenodd;stroke-width:1pt"
         d="m 365.22248,634.69399 c 0,0 4.34192,0.30424 4.83505,-0.50781 0.49312,-0.81206 2.76304,-7.917 1.38152,-11.36769 -4.53929,-3.85671 1.67729,11.77371 -6.21657,11.8755 z"
         sodipodi:nodetypes="cccc"
         inkscape:connector-curvature="0" />
      <g
         style="fill:#fff400;fill-opacity:1"
         id="g5808-9">
        <path
           inkscape:connector-curvature="0"
           sodipodi:nodetypes="ccccccccccccc"
           d="m 358.64812,625.71656 c 0.0863,-0.92176 -1.67454,-6.01635 3.0698,-12.49416 7.15555,-6.97374 29.44846,-7.05348 33.34729,0.10801 3.89827,7.1615 3.47387,12.43705 2.61296,13.35881 -2.62891,1.52459 -4.48266,1.98491 -7.11157,2.44579 0,0 -0.64705,-7.66535 -1.547,-10.38202 -0.0385,-0.0927 1.1138,4.14003 1.547,10.38428 -0.59978,6.17356 -1.19955,11.85118 -1.19955,11.85118 -7.94114,0.79283 -15.19399,0.94778 -22.79099,-0.1736 -0.77515,-0.70914 -2.56513,-9.13849 -2.78503,-12.80858 -0.2199,-4.23729 0.9857,-10.23103 0.9857,-10.23103 -0.25838,0.21263 -1.19956,8.19862 -0.89939,10.17448 -2.02583,0.20245 -4.79822,-1.73665 -5.22922,-2.23316 z"
           style="fill:#fff400;fill-opacity:1;fill-rule:evenodd;stroke:#000000;stroke-width:1.25001478;stroke-linejoin:round"
           id="path828-1" />
        <path
           d="m 386.96794,601.47697 c 0,4.63427 -4.56733,8.39598 -10.19567,8.39598 -5.62834,0 -10.19621,-3.76171 -10.19621,-8.39598 0,-4.63484 4.56787,-8.39655 10.19621,-8.39655 5.62834,1.2e-4 10.19567,3.76171 10.19567,8.39655 z"
           style="fill:#fff400;fill-opacity:1;fill-rule:evenodd;stroke:#000000;stroke-width:1.25001478;stroke-linejoin:round"
           inkscape:connector-curvature="0"
           id="path827-7" />
      </g>
      <path
         id="path830-6"
         style="fill:#ffffff;fill-opacity:0.25;fill-rule:evenodd;stroke-width:1pt"
         d="m 376.62329,593.71407 c -4.44033,-1.5225 -14.89932,6.39467 -6.61074,13.49961 5.03186,-1.01563 -4.63769,-9.23687 6.61074,-13.49961 z"
         sodipodi:nodetypes="ccc"
         inkscape:connector-curvature="0" />
      <path
         id="path831-5"
         style="fill:#ffffff;fill-opacity:0.25;fill-rule:evenodd;stroke-width:1pt"
         d="m 371.49248,609.24355 c -0.49368,-0.10179 -7.10442,1.11629 -9.47275,4.46575 -1.97305,1.21809 -3.84825,7.00315 -3.05881,11.67248 0.98681,0.8115 2.86145,2.13137 3.35513,1.82657 2.76249,-5.98808 -6.51234,-12.17974 9.17643,-17.9648 z"
         sodipodi:nodetypes="ccccc"
         inkscape:connector-curvature="0" />
      <path
         id="path832-7"
         style="fill:#ffffff;fill-opacity:0.25;fill-rule:evenodd;stroke-width:1pt"
         d="m 364.88118,619.39314 c -1.97305,6.19166 -0.0984,17.25454 2.07201,20.9088 2.17096,0.71026 5.22977,1.01507 5.92081,0.81205 0.59153,-5.17658 -8.19018,-4.46631 -7.99282,-21.72085 z"
         sodipodi:nodetypes="cccc"
         inkscape:connector-curvature="0" />
      <path
         id="path833-9"
         style="fill-opacity:0.25;fill-rule:evenodd;stroke-width:1pt"
         d="m 377.21537,609.44656 c 8.38699,-2.33495 6.21603,-11.57126 9.96587,-9.03386 -0.29631,1.92892 -1.48048,8.72906 -9.96587,9.03386 z"
         sodipodi:nodetypes="ccc"
         inkscape:connector-curvature="0" />
      <path
         id="path834-3"
         style="fill-opacity:0.25;fill-rule:evenodd;stroke-width:1pt"
         d="m 393.00254,628.1222 c 0,0 4.53929,-0.91385 4.73665,-1.82713 1.08521,-3.55247 -1.8752,-11.97673 -3.25617,-13.39783 -6.7097,-2.43617 7.30123,14.10809 -1.48048,15.22496 z"
         sodipodi:nodetypes="cccc"
         inkscape:connector-curvature="0" />
      <path
         id="path835-5"
         style="fill-opacity:0.23999999;fill-rule:evenodd;stroke-width:1pt"
         d="m 384.02348,641.11399 c 0,0 4.34192,0.30424 4.83505,-0.50781 0.49312,-0.81206 2.76304,-7.917 1.38152,-11.36769 -4.53929,-3.85671 1.67729,11.77371 -6.21657,11.8755 z"
         sodipodi:nodetypes="cccc"
         inkscape:connector-curvature="0" />
    </g>
    <g
       id="g6192">
      <path
         id="path890-5"
         style="fill-opacity:0.25;fill-rule:evenodd;stroke-width:1pt"
         d="m 121.20697,640.83995 c 0,0 12.23552,-2.46326 12.7675,-4.92498 2.92515,-9.57558 -5.05455,-32.28292 -8.77691,-36.11346 -18.0858,-6.56662 19.68025,38.02798 -3.99059,41.03844 z"
         sodipodi:nodetypes="cccc"
         inkscape:connector-curvature="0" />
      <path
         id="path891-3"
         style="fill-opacity:0.23999999;fill-rule:evenodd;stroke-width:1pt"
         d="m 97.004173,675.85894 c 0,0 11.703517,0.82007 13.032737,-1.36878 1.32919,-2.18889 7.44769,-21.34005 3.72385,-30.64128 -12.23553,-10.39565 4.52108,31.73569 -16.756587,32.01006 z"
         sodipodi:nodetypes="cccc"
         inkscape:connector-curvature="0" />
      <g
         transform="matrix(2.695471,0,0,2.695471,-887.44243,-1034.9403)"
         style="fill:#17ff00;fill-opacity:1"
         id="g5808-5">
        <path
           inkscape:connector-curvature="0"
           sodipodi:nodetypes="ccccccccccccc"
           d="m 358.64812,625.71656 c 0.0863,-0.92176 -1.67454,-6.01635 3.0698,-12.49416 7.15555,-6.97374 29.44846,-7.05348 33.34729,0.10801 3.89827,7.1615 3.47387,12.43705 2.61296,13.35881 -2.62891,1.52459 -4.48266,1.98491 -7.11157,2.44579 0,0 -0.64705,-7.66535 -1.547,-10.38202 -0.0385,-0.0927 1.1138,4.14003 1.547,10.38428 -0.59978,6.17356 -1.19955,11.85118 -1.19955,11.85118 -7.94114,0.79283 -15.19399,0.94778 -22.79099,-0.1736 -0.77515,-0.70914 -2.56513,-9.13849 -2.78503,-12.80858 -0.2199,-4.23729 0.9857,-10.23103 0.9857,-10.23103 -0.25838,0.21263 -1.19956,8.19862 -0.89939,10.17448 -2.02583,0.20245 -4.79822,-1.73665 -5.22922,-2.23316 z"
           style="fill:#17ff00;fill-opacity:1;fill-rule:evenodd;stroke:#000000;stroke-width:1.25001478;stroke-linejoin:round"
           id="path828-4" />
        <path
           d="m 386.96794,601.47697 c 0,4.63427 -4.56733,8.39598 -10.19567,8.39598 -5.62834,0 -10.19621,-3.76171 -10.19621,-8.39598 0,-4.63484 4.56787,-8.39655 10.19621,-8.39655 5.62834,1.2e-4 10.19567,3.76171 10.19567,8.39655 z"
           style="fill:#17ff00;fill-opacity:1;fill-rule:evenodd;stroke:#000000;stroke-width:1.25001478;stroke-linejoin:round"
           inkscape:connector-curvature="0"
           id="path827-8" />
      </g>
      <path
         id="path830-2"
         style="fill:#ffffff;fill-opacity:0.25;fill-rule:evenodd;stroke-width:1pt"
         d="m 127.73473,565.39876 c -11.96878,-4.10386 -40.160689,17.23665 -17.81906,36.38781 13.56323,-2.73761 -12.500761,-24.89772 17.81906,-36.38781 z"
         sodipodi:nodetypes="ccc"
         inkscape:connector-curvature="0" />
      <path
         id="path831-3"
         style="fill:#ffffff;fill-opacity:0.25;fill-rule:evenodd;stroke-width:1pt"
         d="m 113.90478,607.25802 c -1.3307,-0.27437 -19.149762,3.00893 -25.533526,12.0373 -5.318299,3.28333 -10.372847,18.87679 -8.244934,31.46283 2.659918,2.18738 7.712955,5.74505 9.043656,4.92347 7.446211,-16.1407 -17.553824,-32.83014 24.734804,-48.4236 z"
         sodipodi:nodetypes="ccccc"
         inkscape:connector-curvature="0" />
      <path
         id="path832-4"
         style="fill:#ffffff;fill-opacity:0.25;fill-rule:evenodd;stroke-width:1pt"
         d="m 96.084209,634.61595 c -5.318299,16.68944 -0.265234,46.50911 5.585041,56.35906 5.85176,1.91449 14.0967,2.73609 15.95937,2.18886 1.59446,-13.95332 -22.076389,-12.03881 -21.544411,-58.54792 z"
         sodipodi:nodetypes="cccc"
         inkscape:connector-curvature="0" />
      <path
         id="path833-2"
         style="fill-opacity:0.25;fill-rule:evenodd;stroke-width:1pt"
         d="m 129.33066,607.80523 c 22.60689,-6.29379 16.75513,-31.19 26.86271,-24.35051 -0.79869,5.19935 -3.99059,23.52893 -26.86271,24.35051 z"
         sodipodi:nodetypes="ccc"
         inkscape:connector-curvature="0" />
      <path
         id="path834-5"
         style="fill-opacity:0.25;fill-rule:evenodd;stroke-width:1pt"
         d="m 171.88452,658.14487 c 0,0 12.23552,-2.46325 12.7675,-4.92497 2.92515,-9.57558 -5.05455,-32.28293 -8.77691,-36.11346 -18.0858,-6.56663 19.68025,38.02794 -3.99059,41.03843 z"
         sodipodi:nodetypes="cccc"
         inkscape:connector-curvature="0" />
      <path
         id="path835-57"
         style="fill-opacity:0.23999999;fill-rule:evenodd;stroke-width:1pt"
         d="m 147.68172,693.16387 c 0,0 11.70352,0.82007 13.03274,-1.36879 1.32919,-2.18888 7.44769,-21.34004 3.72385,-30.64128 -12.23553,-10.39565 4.52108,31.7357 -16.75659,32.01007 z"
         sodipodi:nodetypes="cccc"
         inkscape:connector-curvature="0" />
    </g>
    <g
       id="g6179">
      <path
         id="path890-1"
         style="fill-opacity:0.25;fill-rule:evenodd;stroke-width:1pt"
         d="m 58.577509,826.70794 c 0,0 12.235525,-2.46326 12.767503,-4.92498 2.925152,-9.57558 -5.054547,-32.28292 -8.776912,-36.11346 -18.085802,-6.56662 19.680254,38.02798 -3.990591,41.03844 z"
         sodipodi:nodetypes="cccc"
         inkscape:connector-curvature="0" />
      <path
         id="path891-5"
         style="fill-opacity:0.23999999;fill-rule:evenodd;stroke-width:1pt"
         d="m 34.374713,861.72693 c 0,0 11.70352,0.82007 13.032737,-1.36878 1.329191,-2.18889 7.447695,-21.34005 3.723848,-30.64128 -12.235525,-10.39565 4.521086,31.73569 -16.756585,32.01006 z"
         sodipodi:nodetypes="cccc"
         inkscape:connector-curvature="0" />
      <g
         transform="matrix(2.695471,0,0,2.695471,-950.07189,-849.07231)"
         style="fill:#00b4ff;fill-opacity:1"
         id="g5808-2">
        <path
           inkscape:connector-curvature="0"
           sodipodi:nodetypes="ccccccccccccc"
           d="m 358.64812,625.71656 c 0.0863,-0.92176 -1.67454,-6.01635 3.0698,-12.49416 7.15555,-6.97374 29.44846,-7.05348 33.34729,0.10801 3.89827,7.1615 3.47387,12.43705 2.61296,13.35881 -2.62891,1.52459 -4.48266,1.98491 -7.11157,2.44579 0,0 -0.64705,-7.66535 -1.547,-10.38202 -0.0385,-0.0927 1.1138,4.14003 1.547,10.38428 -0.59978,6.17356 -1.19955,11.85118 -1.19955,11.85118 -7.94114,0.79283 -15.19399,0.94778 -22.79099,-0.1736 -0.77515,-0.70914 -2.56513,-9.13849 -2.78503,-12.80858 -0.2199,-4.23729 0.9857,-10.23103 0.9857,-10.23103 -0.25838,0.21263 -1.19956,8.19862 -0.89939,10.17448 -2.02583,0.20245 -4.79822,-1.73665 -5.22922,-2.23316 z"
           style="fill:#00b4ff;fill-opacity:1;fill-rule:evenodd;stroke:#000000;stroke-width:1.25001478;stroke-linejoin:round"
           id="path828-7" />
        <path
           d="m 386.96794,601.47697 c 0,4.63427 -4.56733,8.39598 -10.19567,8.39598 -5.62834,0 -10.19621,-3.76171 -10.19621,-8.39598 0,-4.63484 4.56787,-8.39655 10.19621,-8.39655 5.62834,1.2e-4 10.19567,3.76171 10.19567,8.39655 z"
           style="fill:#00b4ff;fill-opacity:1;fill-rule:evenodd;stroke:#000000;stroke-width:1.25001478;stroke-linejoin:round"
           inkscape:connector-curvature="0"
           id="path827-2" />
      </g>
      <path
         id="path830-8"
         style="fill:#ffffff;fill-opacity:0.25;fill-rule:evenodd;stroke-width:1pt"
         d="M 65.105266,751.26675 C 53.136485,747.16289 24.944581,768.5034 47.286208,787.65456 60.849441,784.91695 34.785449,762.75684 65.105266,751.26675 Z"
         sodipodi:nodetypes="ccc"
         inkscape:connector-curvature="0" />
      <path
         id="path831-4"
         style="fill:#ffffff;fill-opacity:0.25;fill-rule:evenodd;stroke-width:1pt"
         d="m 51.275317,793.12601 c -1.330701,-0.27437 -19.149759,3.00893 -25.533523,12.0373 -5.318299,3.28333 -10.372847,18.87679 -8.244934,31.46283 2.659918,2.18738 7.712955,5.74505 9.043656,4.92347 7.446211,-16.1407 -17.553824,-32.83014 24.734801,-48.4236 z"
         sodipodi:nodetypes="ccccc"
         inkscape:connector-curvature="0" />
      <path
         id="path832-1"
         style="fill:#ffffff;fill-opacity:0.25;fill-rule:evenodd;stroke-width:1pt"
         d="m 33.454749,820.48394 c -5.318299,16.68944 -0.265234,46.50911 5.585043,56.35906 5.85176,1.91449 14.096693,2.73609 15.959372,2.18886 1.594452,-13.95332 -22.076393,-12.03881 -21.544415,-58.54792 z"
         sodipodi:nodetypes="cccc"
         inkscape:connector-curvature="0" />
      <path
         id="path833-21"
         style="fill-opacity:0.25;fill-rule:evenodd;stroke-width:1pt"
         d="m 66.701201,793.67322 c 22.606888,-6.29379 16.755128,-31.19 26.862713,-24.35051 -0.798695,5.19935 -3.990591,23.52893 -26.862713,24.35051 z"
         sodipodi:nodetypes="ccc"
         inkscape:connector-curvature="0" />
      <path
         id="path834-7"
         style="fill-opacity:0.25;fill-rule:evenodd;stroke-width:1pt"
         d="m 109.25506,844.01286 c 0,0 12.23552,-2.46325 12.7675,-4.92497 2.92515,-9.57558 -5.05455,-32.28293 -8.77691,-36.11346 -18.085801,-6.56663 19.68025,38.02794 -3.99059,41.03843 z"
         sodipodi:nodetypes="cccc"
         inkscape:connector-curvature="0" />
      <path
         id="path835-7"
         style="fill-opacity:0.23999999;fill-rule:evenodd;stroke-width:1pt"
         d="m 85.052264,879.03186 c 0,0 11.703519,0.82007 13.032737,-1.36879 1.32919,-2.18888 7.447689,-21.34004 3.723849,-30.64128 -12.235527,-10.39565 4.52108,31.7357 -16.756586,32.01007 z"
         sodipodi:nodetypes="cccc"
         inkscape:connector-curvature="0" />
    </g>
    <g
       id="g6231">
      <path
         id="path890-8"
         style="fill-opacity:0.25;fill-rule:evenodd;stroke-width:1pt"
         d="m 136.35926,970.14964 c 0,0 12.23552,-2.46326 12.7675,-4.92498 2.92515,-9.57558 -5.05455,-32.28292 -8.77691,-36.11346 -18.0858,-6.56662 19.68025,38.02798 -3.99059,41.03844 z"
         sodipodi:nodetypes="cccc"
         inkscape:connector-curvature="0" />
      <path
         id="path891-1"
         style="fill-opacity:0.23999999;fill-rule:evenodd;stroke-width:1pt"
         d="m 112.15646,1005.1686 c 0,0 11.70352,0.8201 13.03274,-1.3688 1.32919,-2.1888 7.44769,-21.34 3.72385,-30.64123 -12.23553,-10.39565 4.52108,31.73573 -16.75659,32.01003 z"
         sodipodi:nodetypes="cccc"
         inkscape:connector-curvature="0" />
      <g
         transform="matrix(2.695471,0,0,2.695471,-872.29014,-705.63061)"
         style="fill:#c600ff;fill-opacity:1"
         id="g5808-6">
        <path
           inkscape:connector-curvature="0"
           sodipodi:nodetypes="ccccccccccccc"
           d="m 358.64812,625.71656 c 0.0863,-0.92176 -1.67454,-6.01635 3.0698,-12.49416 7.15555,-6.97374 29.44846,-7.05348 33.34729,0.10801 3.89827,7.1615 3.47387,12.43705 2.61296,13.35881 -2.62891,1.52459 -4.48266,1.98491 -7.11157,2.44579 0,0 -0.64705,-7.66535 -1.547,-10.38202 -0.0385,-0.0927 1.1138,4.14003 1.547,10.38428 -0.59978,6.17356 -1.19955,11.85118 -1.19955,11.85118 -7.94114,0.79283 -15.19399,0.94778 -22.79099,-0.1736 -0.77515,-0.70914 -2.56513,-9.13849 -2.78503,-12.80858 -0.2199,-4.23729 0.9857,-10.23103 0.9857,-10.23103 -0.25838,0.21263 -1.19956,8.19862 -0.89939,10.17448 -2.02583,0.20245 -4.79822,-1.73665 -5.22922,-2.23316 z"
           style="fill:#c600ff;fill-opacity:1;fill-rule:evenodd;stroke:#000000;stroke-width:1.25001478;stroke-linejoin:round"
           id="path828-76" />
        <path
           d="m 386.96794,601.47697 c 0,4.63427 -4.56733,8.39598 -10.19567,8.39598 -5.62834,0 -10.19621,-3.76171 -10.19621,-8.39598 0,-4.63484 4.56787,-8.39655 10.19621,-8.39655 5.62834,1.2e-4 10.19567,3.76171 10.19567,8.39655 z"
           style="fill:#c600ff;fill-opacity:1;fill-rule:evenodd;stroke:#000000;stroke-width:1.25001478;stroke-linejoin:round"
           inkscape:connector-curvature="0"
           id="path827-9" />
      </g>
      <path
         id="path830-5"
         style="fill:#ffffff;fill-opacity:0.25;fill-rule:evenodd;stroke-width:1pt"
         d="m 142.88702,894.70845 c -11.96878,-4.10386 -40.16069,17.23665 -17.81906,36.38781 13.56323,-2.73761 -12.50076,-24.89772 17.81906,-36.38781 z"
         sodipodi:nodetypes="ccc"
         inkscape:connector-curvature="0" />
      <path
         id="path831-1"
         style="fill:#ffffff;fill-opacity:0.25;fill-rule:evenodd;stroke-width:1pt"
         d="m 129.05707,936.56771 c -1.3307,-0.27437 -19.14976,3.00893 -25.53353,12.0373 -5.318295,3.28333 -10.372843,18.87679 -8.24493,31.46283 2.659918,2.18738 7.71296,5.74505 9.04366,4.92347 7.44621,-16.1407 -17.553828,-32.83014 24.7348,-48.4236 z"
         sodipodi:nodetypes="ccccc"
         inkscape:connector-curvature="0" />
      <path
         id="path832-0"
         style="fill:#ffffff;fill-opacity:0.25;fill-rule:evenodd;stroke-width:1pt"
         d="m 111.2365,963.92564 c -5.3183,16.68944 -0.26524,46.50906 5.58504,56.35906 5.85176,1.9145 14.0967,2.7361 15.95937,2.1889 1.59446,-13.9534 -22.07639,-12.0389 -21.54441,-58.54796 z"
         sodipodi:nodetypes="cccc"
         inkscape:connector-curvature="0" />
      <path
         id="path833-96"
         style="fill-opacity:0.25;fill-rule:evenodd;stroke-width:1pt"
         d="m 144.48295,937.11492 c 22.60689,-6.29379 16.75513,-31.19 26.86271,-24.35051 -0.79869,5.19935 -3.99059,23.52893 -26.86271,24.35051 z"
         sodipodi:nodetypes="ccc"
         inkscape:connector-curvature="0" />
      <path
         id="path834-4"
         style="fill-opacity:0.25;fill-rule:evenodd;stroke-width:1pt"
         d="m 187.03681,987.45456 c 0,0 12.23552,-2.46325 12.7675,-4.92497 2.92515,-9.57558 -5.05455,-32.28293 -8.77691,-36.11346 -18.0858,-6.56663 19.68025,38.02794 -3.99059,41.03843 z"
         sodipodi:nodetypes="cccc"
         inkscape:connector-curvature="0" />
      <path
         id="path835-1"
         style="fill-opacity:0.23999999;fill-rule:evenodd;stroke-width:1pt"
         d="m 162.83401,1022.4736 c 0,0 11.70352,0.82 13.03274,-1.3688 1.32919,-2.1889 7.44769,-21.34007 3.72385,-30.64131 -12.23553,-10.39565 4.52108,31.73571 -16.75659,32.01011 z"
         sodipodi:nodetypes="cccc"
         inkscape:connector-curvature="0" />
    </g>
    <g
       id="g6218">
      <path
         id="path890-2"
         style="fill-opacity:0.25;fill-rule:evenodd;stroke-width:1pt"
         d="m 324.24763,978.23086 c 0,0 12.23552,-2.46326 12.7675,-4.92498 2.92515,-9.57558 -5.05455,-32.28292 -8.77691,-36.11346 -18.0858,-6.56662 19.68025,38.02798 -3.99059,41.03844 z"
         sodipodi:nodetypes="cccc"
         inkscape:connector-curvature="0" />
      <path
         id="path891-0"
         style="fill-opacity:0.23999999;fill-rule:evenodd;stroke-width:1pt"
         d="m 300.04483,1013.2499 c 0,0 11.70352,0.82 13.03274,-1.3688 1.32919,-2.1889 7.44769,-21.34008 3.72385,-30.64131 -12.23553,-10.39565 4.52108,31.73571 -16.75659,32.01011 z"
         sodipodi:nodetypes="cccc"
         inkscape:connector-curvature="0" />
      <g
         transform="matrix(2.695471,0,0,2.695471,-684.40177,-697.54939)"
         style="fill:#ff0000;fill-opacity:1"
         id="g5808-3">
        <path
           inkscape:connector-curvature="0"
           sodipodi:nodetypes="ccccccccccccc"
           d="m 358.64812,625.71656 c 0.0863,-0.92176 -1.67454,-6.01635 3.0698,-12.49416 7.15555,-6.97374 29.44846,-7.05348 33.34729,0.10801 3.89827,7.1615 3.47387,12.43705 2.61296,13.35881 -2.62891,1.52459 -4.48266,1.98491 -7.11157,2.44579 0,0 -0.64705,-7.66535 -1.547,-10.38202 -0.0385,-0.0927 1.1138,4.14003 1.547,10.38428 -0.59978,6.17356 -1.19955,11.85118 -1.19955,11.85118 -7.94114,0.79283 -15.19399,0.94778 -22.79099,-0.1736 -0.77515,-0.70914 -2.56513,-9.13849 -2.78503,-12.80858 -0.2199,-4.23729 0.9857,-10.23103 0.9857,-10.23103 -0.25838,0.21263 -1.19956,8.19862 -0.89939,10.17448 -2.02583,0.20245 -4.79822,-1.73665 -5.22922,-2.23316 z"
           style="fill:#ff0000;fill-opacity:1;fill-rule:evenodd;stroke:#000000;stroke-width:1.25001478;stroke-linejoin:round"
           id="path828-6" />
        <path
           d="m 386.96794,601.47697 c 0,4.63427 -4.56733,8.39598 -10.19567,8.39598 -5.62834,0 -10.19621,-3.76171 -10.19621,-8.39598 0,-4.63484 4.56787,-8.39655 10.19621,-8.39655 5.62834,1.2e-4 10.19567,3.76171 10.19567,8.39655 z"
           style="fill:#ff0000;fill-opacity:1;fill-rule:evenodd;stroke:#000000;stroke-width:1.25001478;stroke-linejoin:round"
           inkscape:connector-curvature="0"
           id="path827-1" />
      </g>
      <path
         id="path830-0"
         style="fill:#ffffff;fill-opacity:0.25;fill-rule:evenodd;stroke-width:1pt"
         d="m 330.77539,902.78967 c -11.96878,-4.10386 -40.16069,17.23665 -17.81906,36.38781 13.56323,-2.73761 -12.50076,-24.89772 17.81906,-36.38781 z"
         sodipodi:nodetypes="ccc"
         inkscape:connector-curvature="0" />
      <path
         id="path831-8"
         style="fill:#ffffff;fill-opacity:0.25;fill-rule:evenodd;stroke-width:1pt"
         d="m 316.94544,944.64893 c -1.3307,-0.27437 -19.14976,3.00893 -25.53353,12.0373 -5.3183,3.28333 -10.37284,18.87679 -8.24493,31.46283 2.65992,2.18738 7.71296,5.74505 9.04366,4.92347 7.44621,-16.1407 -17.55383,-32.83014 24.7348,-48.4236 z"
         sodipodi:nodetypes="ccccc"
         inkscape:connector-curvature="0" />
      <path
         id="path832-12"
         style="fill:#ffffff;fill-opacity:0.25;fill-rule:evenodd;stroke-width:1pt"
         d="m 299.12487,972.00686 c -5.3183,16.68944 -0.26524,46.50914 5.58504,56.35904 5.85176,1.9145 14.0967,2.7361 15.95937,2.1889 1.59446,-13.9533 -22.07639,-12.0388 -21.54441,-58.54794 z"
         sodipodi:nodetypes="cccc"
         inkscape:connector-curvature="0" />
      <path
         id="path833-6"
         style="fill-opacity:0.25;fill-rule:evenodd;stroke-width:1pt"
         d="m 332.37132,945.19614 c 22.60689,-6.29379 16.75513,-31.19 26.86271,-24.35051 -0.79869,5.19935 -3.99059,23.52893 -26.86271,24.35051 z"
         sodipodi:nodetypes="ccc"
         inkscape:connector-curvature="0" />
      <path
         id="path834-55"
         style="fill-opacity:0.25;fill-rule:evenodd;stroke-width:1pt"
         d="m 374.92518,995.53578 c 0,0 12.23552,-2.46325 12.7675,-4.92497 2.92515,-9.57558 -5.05455,-32.28293 -8.77691,-36.11346 -18.0858,-6.56663 19.68025,38.02794 -3.99059,41.03843 z"
         sodipodi:nodetypes="cccc"
         inkscape:connector-curvature="0" />
      <path
         id="path835-0"
         style="fill-opacity:0.23999999;fill-rule:evenodd;stroke-width:1pt"
         d="m 350.72238,1030.5548 c 0,0 11.70352,0.82 13.03274,-1.3688 1.32919,-2.1889 7.44769,-21.3401 3.72385,-30.64129 -12.23553,-10.39565 4.52108,31.73569 -16.75659,32.01009 z"
         sodipodi:nodetypes="cccc"
         inkscape:connector-curvature="0" />
    </g>
  </g>
</svg>
